{
  "retCode": "000000",
  "retDesc": "操作成功",
  "data": {
    "curPageSize": 10,
    "pageNo": 1,
    "pageSize": 10,
    "totalPage": 4,
    "totalCount": 40,
    "list": [{
      "id": "1189774891883048136",
      "createdDt": "2019-10-31 14:30:33",
      "updatedDt": "2019-11-01 10:55:37",
      "remark": "内容发布的分类",
      "codeTypeNum": "CONTENT_CLASSIFICATION",
      "nationNum": "",
      "codeTypeName": "分类"
    }, {
      "id": "1189791748918800386",
      "createdDt": "2019-10-31 14:30:33",
      "updatedDt": "2019-11-01 10:55:37",
      "remark": "MySQL数据类型",
      "codeTypeNum": "JDBC_TYPE",
      "nationNum": "",
      "codeTypeName": "数据类型"
    }, {
      "id": "1",
      "createdDt": null,
      "updatedDt": "2019-07-25 18:44:21",
      "remark": null,
      "codeTypeNum": "DB_TYPE",
      "nationNum": null,
      "codeTypeName": "数据库类型"
    }, {
      "id": "1029554296986791937",
      "createdDt": "2018-08-15 10:24:07",
      "updatedDt": "2019-06-26 09:10:46",
      "remark": null,
      "codeTypeNum": "orgType",
      "nationNum": "JGLX",
      "codeTypeName": "机构类型"
    }, {
      "id": "1031749784628535297",
      "createdDt": "2018-08-21 11:48:12",
      "updatedDt": "2019-06-25 14:28:24",
      "remark": null,
      "codeTypeNum": "residentNature",
      "nationNum": "HKXZ",
      "codeTypeName": "户口性质"
    }, {
      "id": "1086183884341006338",
      "createdDt": "2019-01-18 16:49:53",
      "updatedDt": "2019-06-25 14:28:12",
      "remark": null,
      "codeTypeNum": "xueji",
      "nationNum": null,
      "codeTypeName": "学籍变动类型"
    }, {
      "id": "1044864156304629761",
      "createdDt": "2018-09-26 16:20:02",
      "updatedDt": "2019-06-25 14:08:28",
      "remark": null,
      "codeTypeNum": "gender",
      "nationNum": null,
      "codeTypeName": "性别"
    }, {
      "id": "1029197104365404162",
      "createdDt": null,
      "updatedDt": "2019-06-25 14:08:08",
      "remark": "学校办学类型表",
      "codeTypeNum": "schoolRunType",
      "nationNum": "XXBXLXB",
      "codeTypeName": "学校办学类型表"
    }, {
      "id": "1029554018237542402",
      "createdDt": "2018-08-15 10:23:01",
      "updatedDt": "2019-06-25 13:42:54",
      "remark": null,
      "codeTypeNum": "XXBG",
      "nationNum": "XXBG",
      "codeTypeName": "学校变更"
    }, {
      "id": "1029553925283377153",
      "createdDt": "2018-08-15 10:22:39",
      "updatedDt": "2019-02-28 17:38:06",
      "remark": null,
      "codeTypeNum": "XXBB ",
      "nationNum": "XXBB ",
      "codeTypeName": "学校办别"
    }]
  }
}
